{
    "prepare_queue": {
        "installed": [],
        "uninstalled": []
    },
    "config_munge": {
        "files": {}
    },
    "installed_plugins": {
        "cordova-plugin-device": {
            "PACKAGE_NAME": "com.streaklink.optigoo"
        },
        "cordova-plugin-file": {
            "PACKAGE_NAME": "com.streaklink.optigoo"
        },
        "cordova-plugin-inappbrowser": {
            "PACKAGE_NAME": "com.streaklink.optigoo"
        },
        "cordova-plugin-keyboard": {
            "PACKAGE_NAME": "com.streaklink.optigoo"
        },
        "cordova-plugin-media": {
            "KEEP_AVAUDIOSESSION_ALWAYS_ACTIVE": "NO",
            "PACKAGE_NAME": "com.streaklink.optigoo"
        },
        "cordova-plugin-safariviewcontroller": {
            "PACKAGE_NAME": "com.streaklink.optigoo"
        },
        "cordova-plugin-splashscreen": {
            "PACKAGE_NAME": "com.streaklink.optigoo"
        },
        "cordova-plugin-statusbar": {
            "PACKAGE_NAME": "com.streaklink.optigoo"
        },
        "cordova-plugin-whitelist": {
            "PACKAGE_NAME": "com.streaklink.optigoo"
        },
        "cordova-plugin-wkwebview-file-xhr": {
            "PACKAGE_NAME": "com.streaklink.optigoo"
        }
    },
    "dependent_plugins": {
        "cordova-plugin-wkwebview-engine": {
            "PACKAGE_NAME": "com.streaklink.optigoo"
        }
    }
}